
./tezos-client --wait none originate sc rollup from '[PUBLIC_KEY_HASH]' of kind arith of type unit booting with  --burn-cap 9999999
Node is bootstrapped.
Estimated gas: 2509.140 units (will add 100 for safety)
Estimated storage: 6626 bytes added (will add 20 for safety)
Operation successfully injected in the node.
Operation hash is '[OPERATION_HASH]'
NOT waiting for the operation to be included.
Use command
  tezos-client wait for [OPERATION_HASH] to be included --confirmations 1 --branch [BLOCK_HASH]
and/or an external block explorer to make sure that it has been included.
This sequence of operations was run:
  Manager signed operations:
    From: [PUBLIC_KEY_HASH]
    Fee to the baker: ꜩ0.000614
    Expected counter: 1
    Gas limit: 2610
    Storage limit: 6646 bytes
    Balance updates:
      [PUBLIC_KEY_HASH] ... -ꜩ0.000614
      payload fees(the block proposer) ....... +ꜩ0.000614
    Originate smart contract rollup of kind arith and type unit with boot sector ''
      This smart contract rollup origination was successfully applied
      Consumed gas: 2509.140
      Storage size: 6626 bytes
      Address: [SC_ROLLUP_HASH]
      Genesis commitment hash: [SC_ROLLUP_COMMITMENT_HASH]
      Balance updates:
        [PUBLIC_KEY_HASH] ... -ꜩ1.6565
        storage fees ........................... +ꜩ1.6565


./tezos-client rpc get '/chains/main/blocks/head/context/sc_rollup/[SC_ROLLUP_HASH]/genesis_info'
{ "level": 2,
  "commitment_hash": "[SC_ROLLUP_COMMITMENT_HASH]" }

./tezos-client --wait none send sc rollup message 'text:["CAFEBABE"]' from bootstrap1 to '[SC_ROLLUP_HASH]'
Node is bootstrapped.
Estimated gas: 1651.826 units (will add 100 for safety)
Estimated storage: no bytes added
Operation successfully injected in the node.
Operation hash is '[OPERATION_HASH]'
NOT waiting for the operation to be included.
Use command
  tezos-client wait for [OPERATION_HASH] to be included --confirmations 1 --branch [BLOCK_HASH]
and/or an external block explorer to make sure that it has been included.
This sequence of operations was run:
  Manager signed operations:
    From: [PUBLIC_KEY_HASH]
    Fee to the baker: ꜩ0.000457
    Expected counter: 2
    Gas limit: 1752
    Storage limit: 0 bytes
    Balance updates:
      [PUBLIC_KEY_HASH] ... -ꜩ0.000457
      payload fees(the block proposer) ....... +ꜩ0.000457
    Add a message to the inbox of the smart contract rollup at address [SC_ROLLUP_HASH]
      This smart contract rollup messages submission was successfully applied
      Consumed gas: 1651.826
      Resulting inbox state: 
         rollup = [SC_ROLLUP_HASH]
         level = 32
         current messages hash  = [SC_ROLLUP_INBOX_HASH]
         nb_available_messages = 1
         nb_messages_in_commitment_period = 1
         starting_level_of_current_commitment_period = 32
         message_counter = 1
         old_levels_messages = 
       content = [SC_ROLLUP_INBOX_HASH]
       index = 1
       back_pointers = [SC_ROLLUP_INBOX_HASH]
    
    


./tezos-sc-rollup-client-alpha rpc get /global/last_stored_commitment
{ "commitment":
    { "compressed_state":
        "scs139rUcWoTB9MbNUEaWYn5RswKF7G2uENnRPq7Q9ByQRMahtB2NA",
      "inbox_level": 32,
      "predecessor": "[SC_ROLLUP_COMMITMENT_HASH]",
      "number_of_messages": 0, "number_of_ticks": 0 },
  "hash": "[SC_ROLLUP_COMMITMENT_HASH]" }

./tezos-sc-rollup-client-alpha rpc get /local/last_published_commitment
{ "commitment":
    { "compressed_state":
        "scs139rUcWoTB9MbNUEaWYn5RswKF7G2uENnRPq7Q9ByQRMahtB2NA",
      "inbox_level": 32,
      "predecessor": "[SC_ROLLUP_COMMITMENT_HASH]",
      "number_of_messages": 0, "number_of_ticks": 0 },
  "hash": "[SC_ROLLUP_COMMITMENT_HASH]",
  "published_at_level": 35 }
